{
  "root": "libs/schema",
  "sourceRoot": "libs/schema/src",
  "projectType": "library",
  "targets": {
    "build": {
      "executor": "@nrwl/js:tsc",
      "outputs": ["{options.outputPath}"],
      "options": {
        "outputPath": "dist/libs/schema",
        "main": "libs/schema/src/index.ts",
        "tsConfig": "libs/schema/tsconfig.lib.json",
        "assets": ["libs/schema/*.md"]
      }
    },
    "lint": {
      "executor": "@nrwl/linter:eslint",
      "outputs": ["{options.outputFile}"],
      "options": {
        "lintFilePatterns": ["libs/schema/**/*.ts"]
      }
    },
    "test": {
      "executor": "@nrwl/jest:jest",
      "outputs": ["coverage/libs/schema"],
      "options": {
        "jestConfig": "libs/schema/jest.config.js",
        "passWithNoTests": true
      }
    }
  },
  "tags": []
}
